<svg width="2761" height="991" viewBox="0 0 2761 991" fill="none" xmlns="http://www.w3.org/2000/svg">
<path d="M131 249L137.284 265.692L165.365 339.331L319.123 742.677H825.172L419.665 335.207C365.663 281.205 292.221 249 215.832 249H131Z" fill="url(#paint0_linear)"/>
<path d="M165.365 339.331C220.742 433.982 366.253 443.997 381.962 591.079C382.551 597.166 387.264 601.879 393.352 602.861C477.202 616.018 558.893 650.383 629.783 707.33C630.175 707.723 630.764 707.919 631.353 707.919C631.943 707.919 632.532 707.723 633.121 707.33C634.103 706.348 634.103 704.777 633.121 703.796C584.028 652.15 523.938 610.912 456.583 583.813L436.161 575.565C425.557 571.245 418.291 560.837 418.684 548.859C419.862 504.872 523.742 513.905 534.346 492.697L536.113 488.966C514.709 470.703 489.181 456.957 461.296 449.299C461.1 450.28 460.314 455.582 466.009 464.812C472.293 474.827 459.332 490.929 440.284 473.649L438.713 472.274C298.112 343.455 192.857 410.221 137.088 265.692L165.365 339.331Z" fill="white"/>
<path d="M456.19 481.11V516.261C471.311 511.941 488.592 509.192 503.123 506.05V486.412C503.123 486.412 480.148 487.591 466.009 464.419C470.329 471.488 465.616 481.11 456.19 481.11Z" fill="url(#paint1_linear)"/>
<path d="M410.632 606.002C488.395 620.927 563.606 654.506 629.586 707.33C523.939 616.999 459.529 603.253 429.877 603.253C418.487 603.45 412.007 605.61 410.632 606.002Z" fill="url(#paint2_linear)"/>
<path d="M137.284 265.495L165.365 339.134C220.742 433.981 366.252 443.996 381.962 591.078C365.86 403.347 283.384 431.428 194.821 345.811C172.042 329.708 152.797 305.751 137.284 265.495Z" fill="url(#paint3_linear)"/>
<path d="M879.567 598.737C934.158 598.737 980.109 571.638 980.109 534.524C980.109 497.41 934.158 470.31 879.567 470.31C824.975 470.31 779.025 497.41 779.025 534.524C779.025 571.638 824.975 598.737 879.567 598.737ZM876.621 651.954C776.472 651.954 713.044 599.915 713.044 534.72C713.044 468.347 780.399 417.487 879.567 417.487C978.734 417.487 1046.09 468.739 1046.09 532.167C1046.09 560.641 1033.52 584.009 1009.37 603.45H1068.28L1054.14 627.604C1045.3 642.921 1034.31 651.954 1010.74 651.954H876.621Z" fill="#323232"/>
<path d="M1183.16 564.765H1287.23L1238.93 478.754C1237.75 476.79 1236.96 476.201 1235.19 476.201C1233.43 476.201 1232.64 476.79 1231.46 478.754L1183.16 564.765ZM1313.94 612.286H1156.45L1134.06 651.953H1068.67L1177.85 462.652C1186.49 447.727 1198.87 436.142 1223.61 436.142H1247.96C1272.7 436.142 1285.07 447.727 1293.71 462.652L1402.9 651.953H1336.13L1313.94 612.286Z" fill="#323232"/>
<path d="M1714.14 436.338V651.953H1655.82L1484.39 508.995V651.953H1426.07V436.338H1462.59C1481.25 436.338 1490.67 441.247 1501.47 450.477L1655.82 579.1V436.534L1714.14 436.338Z" fill="#323232"/>
<path d="M1921.9 484.842V651.953H1863.58V484.842H1743.99V436.338H2041.69V484.842H1921.9V484.842Z" fill="#323232"/>
<path d="M2104.92 564.765H2209L2160.69 478.754C2159.51 476.79 2158.73 476.201 2156.96 476.201C2155.19 476.201 2154.41 476.79 2153.23 478.754L2104.92 564.765ZM2235.9 612.286H2078.41L2056.03 651.953H1990.83L2100.01 462.652C2108.65 447.727 2121.02 436.142 2145.77 436.142H2170.12C2194.86 436.142 2207.23 447.727 2215.87 462.652L2325.05 651.953H2258.29L2235.9 612.286Z" fill="#323232"/>
<path d="M2345.08 636.44L2339.59 634.673L2354.31 587.74C2396.34 601.29 2441.11 606.788 2481.76 606.788C2548.13 606.788 2564.63 598.933 2564.63 590.686C2564.63 587.151 2562.27 584.598 2557.16 582.831C2550.49 580.474 2532.23 576.743 2477.83 567.907C2417.74 558.088 2390.64 553.179 2370.81 543.949C2350.97 534.72 2338.8 519.992 2338.8 498.588C2338.8 482.289 2346.85 468.936 2359.81 458.528C2382.79 440.658 2422.26 433.589 2465.07 433.589C2520.25 433.589 2566.59 438.105 2618.04 450.87L2622.56 452.244L2610.18 497.999C2552.65 485.627 2520.84 482.093 2477.05 481.7C2446.21 481.503 2425.01 483.664 2413.81 487.198C2407.53 489.162 2404.98 492.107 2404.98 495.642C2404.98 498.784 2406.94 501.73 2413.42 503.693C2420.29 506.05 2431.49 508.603 2490.4 518.028C2554.22 528.436 2575.23 532.756 2592.71 539.629C2616.66 548.859 2631 565.747 2631 587.151C2631 613.858 2610.38 633.691 2574.25 644.688C2552.06 651.364 2522.41 655.095 2489.22 655.095C2436.79 654.899 2381.02 648.026 2345.08 636.44Z" fill="#323232"/>
<defs>
<linearGradient id="paint0_linear" x1="571.63" y1="741.911" x2="233.755" y2="248.459" gradientUnits="userSpaceOnUse">
<stop stop-color="#BE0000" stop-opacity="0.9961"/>
<stop offset="1" stop-color="#FF0000"/>
</linearGradient>
<linearGradient id="paint1_linear" x1="477.615" y1="518.115" x2="482.168" y2="466.08" gradientUnits="userSpaceOnUse">
<stop stop-color="white"/>
<stop offset="0.65" stop-color="white"/>
<stop offset="0.95" stop-color="#A2A5A3"/>
<stop offset="1" stop-color="#A2A5A3"/>
</linearGradient>
<linearGradient id="paint2_linear" x1="410.679" y1="655.431" x2="629.661" y2="655.431" gradientUnits="userSpaceOnUse">
<stop stop-color="white"/>
<stop offset="0.9" stop-color="#A2A5A3"/>
<stop offset="1" stop-color="#A2A5A3"/>
</linearGradient>
<linearGradient id="paint3_linear" x1="137.26" y1="428.321" x2="382.067" y2="428.321" gradientUnits="userSpaceOnUse">
<stop stop-color="white"/>
<stop offset="0.43" stop-color="white"/>
<stop offset="1" stop-color="#A2A5A3"/>
</linearGradient>
</defs>
</svg>
