<svg width="2761" height="991" viewBox="0 0 2761 991" fill="none" xmlns="http://www.w3.org/2000/svg">
<path fill-rule="evenodd" clip-rule="evenodd" d="M2127.33 556.067C2127.33 618.693 2079.74 680.462 2006.77 680.462C1936.87 680.462 1886.23 626.717 1886.23 556.067C1886.23 477.721 1944.04 431.193 2005.3 431.193C2081.33 431.193 2127.33 493.441 2127.33 556.092V556.067ZM2118.17 335.007V360.366C2081.46 330.794 2035.91 315.2 1986.28 315.2C1860.6 315.2 1762.14 420.999 1762.17 556.067C1762.17 616.372 1782.86 673.826 1820.5 717.906C1862.11 766.806 1926.53 796 1992.84 796C2040.35 796 2082.52 780.836 2118.17 750.91V776.193C2118.17 781.895 2122.74 786.538 2128.39 786.538H2227.35C2230.07 786.518 2232.68 785.418 2234.6 783.478C2236.51 781.539 2237.58 778.919 2237.57 776.193V335.007C2237.58 332.281 2236.51 329.661 2234.6 327.722C2232.68 325.783 2230.07 324.682 2227.35 324.662H2128.39C2125.66 324.682 2123.05 325.783 2121.14 327.722C2119.22 329.661 2118.15 332.281 2118.17 335.007" fill="#00567A"/>
<mask id="mask0" mask-type="alpha" maskUnits="userSpaceOnUse" x="525" y="196" width="390" height="600">
<path d="M525 196H914.232V795.265H525V196Z" fill="white"/>
</mask>
<g mask="url(#mask0)">
<path fill-rule="evenodd" clip-rule="evenodd" d="M807.803 683.991C780.047 683.991 760.215 675.412 746.842 658.658C736.825 646.092 732.131 629.262 732.131 601.608V431.215H860.008C861.297 431.208 862.572 430.948 863.761 430.448C864.949 429.949 866.027 429.22 866.934 428.304C867.841 427.388 868.558 426.302 869.045 425.109C869.533 423.916 869.78 422.638 869.773 421.349V333.793C869.78 332.504 869.533 331.227 869.045 330.033C868.558 328.84 867.841 327.754 866.934 326.838C866.027 325.922 864.949 325.193 863.761 324.694C862.572 324.194 861.297 323.934 860.008 323.927H732.157V206.345C732.167 204.994 731.91 203.655 731.402 202.404C730.893 201.152 730.143 200.013 729.193 199.052C728.244 198.091 727.115 197.327 725.87 196.803C724.625 196.28 723.288 196.007 721.938 196H618.284C616.933 196.007 615.597 196.28 614.352 196.803C613.107 197.327 611.977 198.091 611.028 199.052C610.079 200.013 609.328 201.152 608.82 202.404C608.311 203.655 608.055 204.994 608.065 206.345V323.927H535.219C532.493 323.947 529.886 325.048 527.971 326.987C526.055 328.927 524.987 331.547 525 334.273V420.895C525 426.597 529.592 431.24 535.219 431.24H608.065V590.38C608.065 655.403 618.208 696.708 642.002 728.476C674.4 772.178 729.154 795.265 800.309 795.265C855.138 795.265 890.186 782.144 909.085 767.157C914.535 762.817 915.645 753.077 912.441 748.46C897.376 724.708 882.405 700.897 867.527 677.027C863.717 670.77 855.593 669.331 848.78 673.091C839.545 678.188 821.908 683.991 807.803 683.991" fill="#00567A"/>
</g>
<path fill-rule="evenodd" clip-rule="evenodd" d="M1109.74 416.225C1148.59 416.225 1193.26 446.1 1198.4 494.445H1013.6C1019.46 456.597 1057.48 416.225 1109.74 416.225V416.225ZM1109.74 314.439C1046 314.439 988.471 340.1 947.746 386.704C908.888 431.163 887.491 491.039 887.491 555.305C887.491 696.606 985.796 795.264 1126.59 795.264C1188.49 795.264 1249.42 772.504 1292.39 734.53C1294.31 732.814 1296.58 730.644 1298.9 728.272C1300.65 726.506 1301.71 724.169 1301.89 721.688C1302.07 719.206 1301.35 716.744 1299.86 714.748L1250.76 649.321C1249.9 648.166 1248.81 647.208 1247.55 646.509C1246.3 645.81 1244.91 645.387 1243.47 645.268C1242.04 645.148 1240.6 645.336 1239.25 645.817C1237.89 646.298 1236.66 647.063 1235.62 648.059C1232.79 650.784 1229.41 653.862 1225.88 656.789C1205.57 673.392 1172.67 693.452 1129.39 693.452C1064.7 693.452 1014.94 649.674 1007.92 586.795H1309.8C1313.43 586.787 1316.93 585.429 1319.62 582.986C1322.3 580.542 1323.99 577.188 1324.34 573.573C1325.08 565.934 1325.44 558.262 1325.42 550.587C1325.42 487.33 1303.92 428.286 1264.91 384.332C1245.57 362.245 1221.7 344.574 1194.92 332.515C1168.15 320.456 1139.1 314.292 1109.74 314.439" fill="#00567A"/>
<path fill-rule="evenodd" clip-rule="evenodd" d="M1550.92 676.927L1551.12 610.919C1551.17 583.996 1556.75 553.945 1567.1 523.288C1578.83 488.391 1595.71 458.718 1614.38 437.145L1642.89 400.205V554.576L1550.92 676.952V676.927Z" fill="#00A03B"/>
<path fill-rule="evenodd" clip-rule="evenodd" d="M1642.88 400.202L1703.44 321.729C1705.68 318.673 1708.87 316.447 1712.52 315.397C1716.16 314.347 1720.05 314.533 1723.57 315.926C1727.2 317.426 1730.29 319.992 1732.43 323.286C1734.57 326.579 1735.66 330.444 1735.56 334.371L1735.1 431.868L1642.88 554.572V400.202Z" fill="#AFCB37"/>
<path fill-rule="evenodd" clip-rule="evenodd" d="M1735.1 431.868L1734.85 487.884C1735.79 516.648 1731.02 549.753 1719.71 583.287C1709.37 613.969 1695.89 640.892 1679.9 661.557L1642.88 709.725V554.598L1735.1 431.893V431.868Z" fill="#3C7E79"/>
<path fill-rule="evenodd" clip-rule="evenodd" d="M1642.91 554.549V709.727L1582.78 787.947C1580.53 791.011 1577.33 793.245 1573.68 794.299C1570.03 795.354 1566.13 795.169 1562.59 793.775C1558.97 792.267 1555.88 789.694 1553.75 786.397C1551.61 783.099 1550.52 779.232 1550.63 775.305L1550.94 676.925L1642.91 554.549V554.549Z" fill="#00567A"/>
<path fill-rule="evenodd" clip-rule="evenodd" d="M1537.87 676.927L1537.7 610.919C1537.64 583.996 1532.07 553.945 1521.75 523.288C1509.99 488.391 1493.14 458.718 1474.44 437.145L1445.93 400.205V554.576L1537.87 676.927Z" fill="#00A03B"/>
<path fill-rule="evenodd" clip-rule="evenodd" d="M1445.94 400.203L1385.38 321.731C1383.14 318.67 1379.94 316.439 1376.29 315.389C1372.64 314.339 1368.75 314.529 1365.22 315.928C1361.6 317.435 1358.51 320.004 1356.38 323.296C1354.25 326.588 1353.16 330.45 1353.26 334.373L1353.69 431.87L1445.91 554.574V400.203H1445.94Z" fill="#AFCB37"/>
<path fill-rule="evenodd" clip-rule="evenodd" d="M1353.7 431.868L1353.95 487.884C1353.02 516.648 1357.78 549.728 1369.09 583.312C1379.43 613.969 1392.93 640.917 1408.91 661.557L1445.92 709.7V554.572L1353.67 431.868H1353.7Z" fill="#3C7E79"/>
<path fill-rule="evenodd" clip-rule="evenodd" d="M1445.93 554.549V709.727L1506.06 787.947C1508.3 791.011 1511.5 793.245 1515.16 794.299C1518.81 795.354 1522.71 795.169 1526.24 793.775C1529.87 792.267 1532.95 789.694 1535.09 786.397C1537.22 783.099 1538.31 779.232 1538.2 775.305L1537.87 676.925L1445.9 554.549H1445.93Z" fill="#00567A"/>
</svg>
