<svg width="24" height="26" viewBox="0 0 24 26" fill="none" xmlns="http://www.w3.org/2000/svg">
<g fill="#000000">
<path d="M21.7138 18.2585V17.3837L20.96 17.8277C19.929 18.435 18.451 18.8909 16.7175 19.1928C14.9918 19.4933 13.0472 19.6354 11.1069 19.6354C9.14372 19.6354 7.18791 19.4932 5.46242 19.1928C3.72858 18.8908 2.26405 18.4352 1.25766 17.83L0.5 17.3745V18.2585V22.2038C0.5 22.8547 0.963681 23.3565 1.51764 23.7209C2.09001 24.0974 2.88514 24.4149 3.82273 24.6729C5.70502 25.1907 8.27868 25.4999 11.1069 25.4999C13.9129 25.4999 16.4863 25.1906 18.3737 24.673C19.3139 24.4151 20.1129 24.0978 20.6885 23.7218C21.2445 23.3585 21.7138 22.8567 21.7138 22.2038V18.2585Z" stroke="#335EEA"/>
<path d="M21.7138 10.3276V9.47874L20.9713 9.89034C19.9385 10.4629 18.4579 10.8927 16.7224 11.1771C14.9948 11.4602 13.0485 11.5941 11.1069 11.5941C9.1424 11.5941 7.18489 11.4602 5.45751 11.1771C3.72167 10.8926 2.25449 10.4631 1.24627 9.89249L0.5 9.47014V10.3276V14.0408C0.5 14.6832 0.983186 15.1626 1.52923 15.5007C2.10059 15.8544 2.89403 16.1526 3.83003 16.3949C5.70955 16.8816 8.28059 17.1725 11.1069 17.1725C13.9109 17.1725 16.4817 16.8815 18.3665 16.395C19.3051 16.1528 20.1023 15.8548 20.6769 15.5015C21.2248 15.1646 21.7138 14.6853 21.7138 14.0408V10.3276Z" stroke="#335EEA"/>
<path fill-rule="evenodd" clip-rule="evenodd" d="M11.1069 3.76646C15.0323 3.76646 19.0029 3.2257 21.2138 2V5.71316C21.2138 7.19122 16.6567 8.34482 11.1069 8.34482C5.512 8.34482 1 7.19122 1 5.71316V2C3.16576 3.2257 7.13633 3.76646 11.1069 3.76646Z" fill-opacity="0.3"/>
<path d="M21.7138 2V1.1511L20.9713 1.56271C19.9385 2.1353 18.4579 2.56502 16.7224 2.84945C14.9948 3.1326 13.0485 3.26646 11.1069 3.26646C9.1424 3.26646 7.18489 3.13256 5.45751 2.84945C3.72167 2.56496 2.25449 2.13545 1.24627 1.56485L0.5 1.14251V2V5.71316C0.5 6.35553 0.983186 6.83498 1.52923 7.17304C2.10059 7.52677 2.89403 7.82494 3.83003 8.0673C5.70955 8.55397 8.28059 8.84482 11.1069 8.84482C13.9109 8.84482 16.4817 8.55391 18.3665 8.0674C19.3051 7.82511 20.1023 7.52712 20.6769 7.17385C21.2248 6.83695 21.7138 6.35763 21.7138 5.71316V2Z" stroke="#335EEA" stroke-opacity="0.3"/>
</g>
</svg>
