<svg width="{{.width}}" height="{{.height}}" viewBox="0 0 313 69" fill="none" xmlns="http://www.w3.org/2000/svg">
<g fill="#335EEA" stroke="#335EEA">
<path d="M207.562 15.8H225.37C229.626 15.8 233.378 16.6213 236.626 18.264C239.911 19.8693 242.45 22.1467 244.242 25.096C246.071 28.0453 246.986 31.48 246.986 35.4C246.986 39.32 246.071 42.7547 244.242 45.704C242.45 48.6533 239.911 50.9493 236.626 52.592C233.378 54.1973 229.626 55 225.37 55H207.562V15.8ZM224.922 47.552C228.842 47.552 231.959 46.4693 234.274 44.304C236.626 42.1013 237.802 39.1333 237.802 35.4C237.802 31.6667 236.626 28.7173 234.274 26.552C231.959 24.3493 228.842 23.248 224.922 23.248H216.634V47.552H224.922ZM311.763 15.8L298.939 55H289.195L280.571 28.456L271.667 55H261.979L249.099 15.8H258.507L267.355 43.352L276.595 15.8H284.995L293.955 43.576L303.083 15.8H311.763Z" />
<path d="M187.506 55.448C184.295 55.448 181.402 54.7947 178.826 53.488C176.287 52.144 174.29 50.296 172.834 47.944C171.415 45.592 170.706 42.9227 170.706 39.936C170.706 36.9493 171.415 34.28 172.834 31.928C174.29 29.576 176.287 27.7467 178.826 26.44C181.402 25.096 184.295 24.424 187.506 24.424C190.679 24.424 193.442 25.096 195.794 26.44C198.183 27.7467 199.919 29.632 201.002 32.096L194.226 35.736C192.658 32.9733 190.399 31.592 187.45 31.592C185.173 31.592 183.287 32.3387 181.794 33.832C180.301 35.3253 179.554 37.36 179.554 39.936C179.554 42.512 180.301 44.5467 181.794 46.04C183.287 47.5333 185.173 48.28 187.45 48.28C190.437 48.28 192.695 46.8987 194.226 44.136L201.002 47.832C199.919 50.2213 198.183 52.088 195.794 53.432C193.442 54.776 190.679 55.448 187.506 55.448Z" />
<path d="M155.188 24.872H163.924V55H155.188V24.872ZM159.556 20.672C157.951 20.672 156.644 20.2053 155.636 19.272C154.628 18.3387 154.124 17.1813 154.124 15.8C154.124 14.4187 154.628 13.2613 155.636 12.328C156.644 11.3947 157.951 10.928 159.556 10.928C161.162 10.928 162.468 11.376 163.476 12.272C164.484 13.168 164.988 14.288 164.988 15.632C164.988 17.088 164.484 18.3013 163.476 19.272C162.468 20.2053 161.162 20.672 159.556 20.672Z"/>
<path d="M150.128 52.544C149.269 53.1787 148.205 53.664 146.936 54C145.704 54.2987 144.397 54.448 143.016 54.448C139.432 54.448 136.651 53.5333 134.672 51.704C132.731 49.8747 131.76 47.1867 131.76 43.64V31.264H127.112V24.544H131.76V17.208H140.496V24.544H148V31.264H140.496V43.528C140.496 44.7973 140.813 45.7867 141.448 46.496C142.12 47.168 143.053 47.504 144.248 47.504C145.629 47.504 146.805 47.1307 147.776 46.384L150.128 52.544Z"/>
<path d="M110.418 55.448C107.917 55.448 105.471 55.1493 103.082 54.552C100.693 53.9173 98.7887 53.1333 97.37 52.2L100.282 45.928C101.626 46.7867 103.25 47.496 105.154 48.056C107.058 48.5787 108.925 48.84 110.754 48.84C114.45 48.84 116.298 47.9253 116.298 46.096C116.298 45.2373 115.794 44.6213 114.786 44.248C113.778 43.8747 112.229 43.5573 110.138 43.296C107.674 42.9227 105.639 42.4933 104.034 42.008C102.429 41.5227 101.029 40.664 99.834 39.432C98.6767 38.2 98.098 36.4453 98.098 34.168C98.098 32.264 98.6393 30.584 99.722 29.128C100.842 27.6347 102.447 26.4773 104.538 25.656C106.666 24.8347 109.167 24.424 112.042 24.424C114.17 24.424 116.279 24.6667 118.37 25.152C120.498 25.6 122.253 26.2347 123.634 27.056L120.722 33.272C118.071 31.7787 115.178 31.032 112.042 31.032C110.175 31.032 108.775 31.2933 107.842 31.816C106.909 32.3387 106.442 33.0107 106.442 33.832C106.442 34.7653 106.946 35.4187 107.954 35.792C108.962 36.1653 110.567 36.52 112.77 36.856C115.234 37.2667 117.25 37.7147 118.818 38.2C120.386 38.648 121.749 39.488 122.906 40.72C124.063 41.952 124.642 43.6693 124.642 45.872C124.642 47.7387 124.082 49.4 122.962 50.856C121.842 52.312 120.199 53.4507 118.034 54.272C115.906 55.056 113.367 55.448 110.418 55.448Z"/>
<path d="M77.6215 24.424C82.2882 24.424 85.8722 25.544 88.3735 27.784C90.8748 29.9867 92.1255 33.328 92.1255 37.808V55H83.9495V51.248C82.3068 54.048 79.2455 55.448 74.7655 55.448C72.4508 55.448 70.4348 55.056 68.7175 54.272C67.0375 53.488 65.7495 52.4053 64.8535 51.024C63.9575 49.6427 63.5095 48.0747 63.5095 46.32C63.5095 43.52 64.5548 41.3173 66.6455 39.712C68.7735 38.1067 72.0402 37.304 76.4455 37.304H83.3895C83.3895 35.4 82.8108 33.944 81.6535 32.936C80.4962 31.8907 78.7602 31.368 76.4455 31.368C74.8402 31.368 73.2535 31.6293 71.6855 32.152C70.1548 32.6373 68.8482 33.3093 67.7655 34.168L64.6295 28.064C66.2722 26.9067 68.2322 26.0107 70.5095 25.376C72.8242 24.7413 75.1948 24.424 77.6215 24.424ZM76.9495 49.568C78.4428 49.568 79.7682 49.232 80.9255 48.56C82.0828 47.8507 82.9042 46.824 83.3895 45.48V42.4H77.3975C73.8135 42.4 72.0215 43.576 72.0215 45.928C72.0215 47.048 72.4508 47.944 73.3095 48.616C74.2055 49.2507 75.4188 49.568 76.9495 49.568Z"/>
<path d="M48.1883 13.448H56.9243V55H48.1883V13.448Z"/>
<path d="M40.5 44.369V43.4942L39.7462 43.9382C37.6879 45.1507 34.7736 46.0426 31.4047 46.6293C28.0436 47.2146 24.2644 47.4902 20.5 47.4902C16.6918 47.4902 12.8909 47.2145 9.52997 46.6293C6.16072 46.0425 3.27045 45.1508 1.25766 43.9405L0.5 43.4849V44.369V51.9809C0.5 52.9966 1.22577 53.8434 2.2541 54.5198C3.30084 55.2083 4.78263 55.805 6.56938 56.2966C10.15 57.2817 15.0719 57.8757 20.5 57.8757C25.8849 57.8757 30.8066 57.2816 34.3976 56.2967C36.1895 55.8052 37.6791 55.2087 38.7323 54.5207C39.766 53.8454 40.5 52.9987 40.5 51.9809V44.369Z"/>
<path d="M40.5 29.067V28.2181L39.7576 28.6297C37.6974 29.7719 34.7805 30.612 31.4096 31.1645C28.0466 31.7157 24.2657 31.9752 20.5 31.9752C16.6904 31.9752 12.8879 31.7156 9.52506 31.1645C6.15382 30.612 3.26089 29.772 1.24627 28.6319L0.5 28.2095V29.067V36.2311C0.5 37.2169 1.24527 38.0209 2.26568 38.6527C3.31142 39.3001 4.79153 39.861 6.57668 40.3233C10.1545 41.2497 15.0738 41.8086 20.5 41.8086C25.883 41.8086 30.802 41.2496 34.3903 40.3234C36.1807 39.8612 37.6686 39.3004 38.7208 38.6535C39.7463 38.0229 40.5 37.219 40.5 36.2311V29.067Z"/>
<path d="M40.5 13V12.1511L39.7576 12.5627C37.6974 13.7049 34.7805 14.545 31.4096 15.0975C28.0466 15.6487 24.2657 15.9082 20.5 15.9082C16.6904 15.9082 12.8879 15.6486 9.52506 15.0975C6.15382 14.545 3.26089 13.705 1.24627 12.5649L0.5 12.1425V13V20.1641C0.5 21.1499 1.24527 21.9539 2.26568 22.5856C3.31142 23.2331 4.79153 23.794 6.57668 24.2563C10.1545 25.1827 15.0738 25.7416 20.5 25.7416C25.883 25.7416 30.802 25.1826 34.3903 24.2564C36.1807 23.7942 37.6686 23.2334 38.7208 22.5864C39.7463 21.9559 40.5 21.152 40.5 20.1641V13Z" fill-opacity="0.3" stroke-opacity="0.3" />
</g>
</svg>
