<svg width="2761" height="991" viewBox="0 0 2761 991" fill="none" xmlns="http://www.w3.org/2000/svg">
<path d="M901.003 267.589H578.513V267.619L578.458 267.589L397.205 588.355L215.952 267.589H130L397.412 740.78L622.296 342.703H901.003V267.589Z" fill="currentColor"/>
<path d="M901.003 533.317V458.204H580.989V720.209H901.003V645.096H656.102V533.317H901.003" fill="currentColor"/>
<path d="M1692.92 267.588V720.209H1768.03V267.588H1692.92Z" fill="currentColor"/>
<path d="M1663.69 267.588H1280.13V268.936C1303.73 288.01 1321.93 313.471 1332.12 342.702H1434.35V720.209H1509.47V342.702H1663.69V267.588Z" fill="currentColor"/>
<path d="M1007.11 342.702H1176.85C1206.77 342.702 1231.02 366.953 1231.02 396.87C1231.02 426.784 1206.77 451.038 1176.85 451.038H1007.11V342.702ZM1261.34 720.209H1336.46L1225.38 516.697C1272.73 497.501 1306.13 451.099 1306.13 396.87C1306.13 325.47 1248.25 267.588 1176.85 267.588H1007.11H956.564H932.001V720.209H1007.11V526.151H1155.43L1261.34 720.209" fill="currentColor"/>
<path d="M2348.4 250.999H2348.12L2155.23 572.321L2155.06 572.61L2155.05 572.606C2128 617.475 2078.81 647.491 2022.59 647.491C1937.24 647.491 1868.03 578.29 1868.03 492.931C1868.03 407.568 1937.24 338.371 2022.59 338.371C2075.12 338.371 2121.49 364.593 2149.43 404.637L2190 337.041C2148.23 292.208 2088.71 264.136 2022.59 264.136C1896.24 264.136 1793.8 366.57 1793.8 492.931C1793.8 619.289 1896.24 721.724 2022.59 721.724C2105.95 721.724 2178.88 677.134 2218.87 610.519L2218.88 610.521L2347.74 395.841L2543.1 721.304L2630 720.211L2348.4 250.999" fill="currentColor"/>
</svg>
